Endogenous Macrodynamics in Algorithmic Recourse - 2 Data Preprocessing
…
Feature transformation:

transformer = Standardizer(count=true) |> ContinuousEncoder()
mach = MLJBase.fit!(machine(transformer, df_balanced[:,Not(:target)]))
X = MLJBase.transform(mach, df_balanced[:,Not(:target)])
schema(X)

┌──────────────┬────────────┬─────────┐
│ names        │ scitypes   │ types   │
├──────────────┼────────────┼─────────┤
│ LIMIT_BAL    │ Continuous │ Float64 │
│ SEX__1       │ Continuous │ Float64 │
│ SEX__2       │ Continuous │ Float64 │
│ EDUCATION__0 │ Continuous │ Float64 │
│ EDUCATION__1 │ Continuous │ Float64 │
│ EDUCATION__2 │ Continuous │ Float64 │
│ EDUCATION__3 │ Continuous │ Float64 │
│ EDUCATION__4 │ Continuous │ Float64 │
│ EDUCATION__5 │ Continuous │ Float64 │
│ EDUCATION__6 │ Continuous │ Float64 │
│ MARRIAGE__0  │ Continuous │ Float64 │
│ MARRIAGE__1  │ Continuous │ Float64 │
│ MARRIAGE__2  │ Continuous │ Float64 │
│ MARRIAGE__3  │ Continuous │ Float64 │
│ AGE          │ Continuous │ Float64 │
│ PAY_0        │ Continuous │ Float64 │
│ PAY_2        │ Continuous │ Float64 │
│ PAY_3        │ Continuous │ Float64 │
│ PAY_4        │ Continuous │ Float64 │
│ PAY_5        │ Continuous │ Float64 │
│ PAY_6        │ Continuous │ Float64 │
│ BILL_AMT1    │ Continuous │ Float64 │
│      ⋮       │     ⋮      │    ⋮    │
└──────────────┴────────────┴─────────┘
                        11 rows omitted
…
